{
  "project_info": {
    "project_number": "669494888357",
    "firebase_url": "https://tower-of-hanoi-68d23.firebaseio.com",
    "project_id": "tower-of-hanoi-68d23",
    "storage_bucket": "tower-of-hanoi-68d23.appspot.com"
  },
  "client": [
    {
      "client_info": {
        "mobilesdk_app_id": "1:669494888357:android:583fdab3fa84a7fdce8a4c",
        "android_client_info": {
          "package_name": "com.shamoon.towerofhanoi"
        }
      },
      "oauth_client": [
        {
          "client_id": "669494888357-ucbravvl88p63qidho6h6vhnbtuf2aik.apps.googleusercontent.com",
          "client_type": 1,
          "android_info": {
            "package_name": "com.shamoon.towerofhanoi",
            "certificate_hash": "8f98bf6173f81aad6400535f539483040899efdf"
          }
        },
        {
          "client_id": "669494888357-orhikf52k1kkeg930lrr6vq93o7n5b5v.apps.googleusercontent.com",
          "client_type": 3
        }
      ],
      "api_key": [
        {
          "current_key": "AIzaSyDn7eUQHn3jSqmv9cA7u5iDgbdW4xEwLBQ"
        }
      ],
      "services": {
        "appinvite_service": {
          "other_platform_oauth_client": [
            {
              "client_id": "669494888357-orhikf52k1kkeg930lrr6vq93o7n5b5v.apps.googleusercontent.com",
              "client_type": 3
            }
          ]
        }
      }
    }
  ],
  "configuration_version": "1"
}